EESchema Schematic File Version 4
EELAYER 30 0
EELAYER END
$Descr A4 11693 8268
encoding utf-8
Sheet 1 1
Title ""
Date ""
Rev ""
Comp ""
Comment1 ""
Comment2 ""
Comment3 ""
Comment4 ""
$EndDescr
$Comp
L LED:APA102-2020 D1
U 1 1 5E19E429
P 3550 1400
F 0 "D1" H 3550 1881 50  0000 C CNN
F 1 "APA102-2020" H 3550 1790 50  0000 C CNN
F 2 "APA102-alt:APA102-2020" H 3600 1100 50  0001 L TNN
F 3 "http://www.led-color.com/upload/201604/APA102-2020%20SMD%20LED.pdf" H 3650 1025 50  0001 L TNN
	1    3550 1400
	1    0    0    -1  
$EndComp
$Comp
L LED:APA102-2020 D2
U 1 1 5E19EC7A
P 4150 1400
F 0 "D2" H 4150 1881 50  0000 C CNN
F 1 "APA102-2020" H 4150 1790 50  0000 C CNN
F 2 "APA102-alt:APA102-2020" H 4200 1100 50  0001 L TNN
F 3 "http://www.led-color.com/upload/201604/APA102-2020%20SMD%20LED.pdf" H 4250 1025 50  0001 L TNN
	1    4150 1400
	1    0    0    -1  
$EndComp
$Comp
L LED:APA102-2020 D3
U 1 1 5E19F2B2
P 4750 1400
F 0 "D3" H 4750 1881 50  0000 C CNN
F 1 "APA102-2020" H 4750 1790 50  0000 C CNN
F 2 "APA102-alt:APA102-2020" H 4800 1100 50  0001 L TNN
F 3 "http://www.led-color.com/upload/201604/APA102-2020%20SMD%20LED.pdf" H 4850 1025 50  0001 L TNN
	1    4750 1400
	1    0    0    -1  
$EndComp
$Comp
L LED:APA102-2020 D4
U 1 1 5E1A1764
P 5350 1400
F 0 "D4" H 5350 1881 50  0000 C CNN
F 1 "APA102-2020" H 5350 1790 50  0000 C CNN
F 2 "APA102-alt:APA102-2020" H 5400 1100 50  0001 L TNN
F 3 "http://www.led-color.com/upload/201604/APA102-2020%20SMD%20LED.pdf" H 5450 1025 50  0001 L TNN
	1    5350 1400
	1    0    0    -1  
$EndComp
$Comp
L LED:APA102-2020 D5
U 1 1 5E1A176A
P 5950 1400
F 0 "D5" H 5950 1881 50  0000 C CNN
F 1 "APA102-2020" H 5950 1790 50  0000 C CNN
F 2 "APA102-alt:APA102-2020" H 6000 1100 50  0001 L TNN
F 3 "http://www.led-color.com/upload/201604/APA102-2020%20SMD%20LED.pdf" H 6050 1025 50  0001 L TNN
	1    5950 1400
	1    0    0    -1  
$EndComp
$Comp
L LED:APA102-2020 D6
U 1 1 5E1A1770
P 6550 1400
F 0 "D6" H 6550 1881 50  0000 C CNN
F 1 "APA102-2020" H 6550 1790 50  0000 C CNN
F 2 "APA102-alt:APA102-2020" H 6600 1100 50  0001 L TNN
F 3 "http://www.led-color.com/upload/201604/APA102-2020%20SMD%20LED.pdf" H 6650 1025 50  0001 L TNN
	1    6550 1400
	1    0    0    -1  
$EndComp
$Comp
L LED:APA102-2020 D7
U 1 1 5E1A2F25
P 7150 1400
F 0 "D7" H 7150 1881 50  0000 C CNN
F 1 "APA102-2020" H 7150 1790 50  0000 C CNN
F 2 "APA102-alt:APA102-2020" H 7200 1100 50  0001 L TNN
F 3 "http://www.led-color.com/upload/201604/APA102-2020%20SMD%20LED.pdf" H 7250 1025 50  0001 L TNN
	1    7150 1400
	1    0    0    -1  
$EndComp
$Comp
L LED:APA102-2020 D8
U 1 1 5E1A2F2B
P 7750 1400
F 0 "D8" H 7750 1881 50  0000 C CNN
F 1 "APA102-2020" H 7750 1790 50  0000 C CNN
F 2 "APA102-alt:APA102-2020" H 7800 1100 50  0001 L TNN
F 3 "http://www.led-color.com/upload/201604/APA102-2020%20SMD%20LED.pdf" H 7850 1025 50  0001 L TNN
	1    7750 1400
	1    0    0    -1  
$EndComp
$Comp
L LED:APA102-2020 D9
U 1 1 5E1A2F31
P 8350 1400
F 0 "D9" H 8350 1881 50  0000 C CNN
F 1 "APA102-2020" H 8350 1790 50  0000 C CNN
F 2 "APA102-alt:APA102-2020" H 8400 1100 50  0001 L TNN
F 3 "http://www.led-color.com/upload/201604/APA102-2020%20SMD%20LED.pdf" H 8450 1025 50  0001 L TNN
	1    8350 1400
	1    0    0    -1  
$EndComp
$Comp
L LED:APA102-2020 D10
U 1 1 5E1A42FC
P 8950 1400
F 0 "D10" H 8950 1881 50  0000 C CNN
F 1 "APA102-2020" H 8950 1790 50  0000 C CNN
F 2 "APA102-alt:APA102-2020" H 9000 1100 50  0001 L TNN
F 3 "http://www.led-color.com/upload/201604/APA102-2020%20SMD%20LED.pdf" H 9050 1025 50  0001 L TNN
	1    8950 1400
	1    0    0    -1  
$EndComp
$Comp
L LED:APA102-2020 D11
U 1 1 5E1A4302
P 9550 1400
F 0 "D11" H 9550 1881 50  0000 C CNN
F 1 "APA102-2020" H 9550 1790 50  0000 C CNN
F 2 "APA102-alt:APA102-2020" H 9600 1100 50  0001 L TNN
F 3 "http://www.led-color.com/upload/201604/APA102-2020%20SMD%20LED.pdf" H 9650 1025 50  0001 L TNN
	1    9550 1400
	1    0    0    -1  
$EndComp
$Comp
L LED:APA102-2020 D12
U 1 1 5E1A4308
P 10150 1400
F 0 "D12" H 10150 1881 50  0000 C CNN
F 1 "APA102-2020" H 10150 1790 50  0000 C CNN
F 2 "APA102-alt:APA102-2020" H 10200 1100 50  0001 L TNN
F 3 "http://www.led-color.com/upload/201604/APA102-2020%20SMD%20LED.pdf" H 10250 1025 50  0001 L TNN
	1    10150 1400
	1    0    0    -1  
$EndComp
$Comp
L LED:APA102-2020 D13
U 1 1 5E1AE16A
P 10750 1400
F 0 "D13" H 10750 1881 50  0000 C CNN
F 1 "APA102-2020" H 10750 1790 50  0000 C CNN
F 2 "APA102-alt:APA102-2020" H 10800 1100 50  0001 L TNN
F 3 "http://www.led-color.com/upload/201604/APA102-2020%20SMD%20LED.pdf" H 10850 1025 50  0001 L TNN
	1    10750 1400
	1    0    0    -1  
$EndComp
$Comp
L LED:APA102-2020 D14
U 1 1 5E1AE170
P 11350 1400
F 0 "D14" H 11350 1881 50  0000 C CNN
F 1 "APA102-2020" H 11350 1790 50  0000 C CNN
F 2 "APA102-alt:APA102-2020" H 11400 1100 50  0001 L TNN
F 3 "http://www.led-color.com/upload/201604/APA102-2020%20SMD%20LED.pdf" H 11450 1025 50  0001 L TNN
	1    11350 1400
	1    0    0    -1  
$EndComp
$Comp
L LED:APA102-2020 D15
U 1 1 5E1AE176
P 11950 1400
F 0 "D15" H 11950 1881 50  0000 C CNN
F 1 "APA102-2020" H 11950 1790 50  0000 C CNN
F 2 "APA102-alt:APA102-2020" H 12000 1100 50  0001 L TNN
F 3 "http://www.led-color.com/upload/201604/APA102-2020%20SMD%20LED.pdf" H 12050 1025 50  0001 L TNN
	1    11950 1400
	1    0    0    -1  
$EndComp
$Comp
L LED:APA102-2020 D16
U 1 1 5E1BE147
P 3550 2450
F 0 "D16" H 3550 2931 50  0000 C CNN
F 1 "APA102-2020" H 3550 2840 50  0000 C CNN
F 2 "APA102-alt:APA102-2020" H 3600 2150 50  0001 L TNN
F 3 "http://www.led-color.com/upload/201604/APA102-2020%20SMD%20LED.pdf" H 3650 2075 50  0001 L TNN
	1    3550 2450
	1    0    0    -1  
$EndComp
$Comp
L LED:APA102-2020 D17
U 1 1 5E1BE14D
P 4150 2450
F 0 "D17" H 4150 2931 50  0000 C CNN
F 1 "APA102-2020" H 4150 2840 50  0000 C CNN
F 2 "APA102-alt:APA102-2020" H 4200 2150 50  0001 L TNN
F 3 "http://www.led-color.com/upload/201604/APA102-2020%20SMD%20LED.pdf" H 4250 2075 50  0001 L TNN
	1    4150 2450
	1    0    0    -1  
$EndComp
$Comp
L LED:APA102-2020 D18
U 1 1 5E1BE153
P 4750 2450
F 0 "D18" H 4750 2931 50  0000 C CNN
F 1 "APA102-2020" H 4750 2840 50  0000 C CNN
F 2 "APA102-alt:APA102-2020" H 4800 2150 50  0001 L TNN
F 3 "http://www.led-color.com/upload/201604/APA102-2020%20SMD%20LED.pdf" H 4850 2075 50  0001 L TNN
	1    4750 2450
	1    0    0    -1  
$EndComp
$Comp
L LED:APA102-2020 D19
U 1 1 5E1BE159
P 5350 2450
F 0 "D19" H 5350 2931 50  0000 C CNN
F 1 "APA102-2020" H 5350 2840 50  0000 C CNN
F 2 "APA102-alt:APA102-2020" H 5400 2150 50  0001 L TNN
F 3 "http://www.led-color.com/upload/201604/APA102-2020%20SMD%20LED.pdf" H 5450 2075 50  0001 L TNN
	1    5350 2450
	1    0    0    -1  
$EndComp
$Comp
L LED:APA102-2020 D20
U 1 1 5E1BE15F
P 5950 2450
F 0 "D20" H 5950 2931 50  0000 C CNN
F 1 "APA102-2020" H 5950 2840 50  0000 C CNN
F 2 "APA102-alt:APA102-2020" H 6000 2150 50  0001 L TNN
F 3 "http://www.led-color.com/upload/201604/APA102-2020%20SMD%20LED.pdf" H 6050 2075 50  0001 L TNN
	1    5950 2450
	1    0    0    -1  
$EndComp
$Comp
L LED:APA102-2020 D21
U 1 1 5E1BE165
P 6550 2450
F 0 "D21" H 6550 2931 50  0000 C CNN
F 1 "APA102-2020" H 6550 2840 50  0000 C CNN
F 2 "APA102-alt:APA102-2020" H 6600 2150 50  0001 L TNN
F 3 "http://www.led-color.com/upload/201604/APA102-2020%20SMD%20LED.pdf" H 6650 2075 50  0001 L TNN
	1    6550 2450
	1    0    0    -1  
$EndComp
$Comp
L LED:APA102-2020 D22
U 1 1 5E1BE16B
P 7150 2450
F 0 "D22" H 7150 2931 50  0000 C CNN
F 1 "APA102-2020" H 7150 2840 50  0000 C CNN
F 2 "APA102-alt:APA102-2020" H 7200 2150 50  0001 L TNN
F 3 "http://www.led-color.com/upload/201604/APA102-2020%20SMD%20LED.pdf" H 7250 2075 50  0001 L TNN
	1    7150 2450
	1    0    0    -1  
$EndComp
$Comp
L LED:APA102-2020 D23
U 1 1 5E1BE171
P 7750 2450
F 0 "D23" H 7750 2931 50  0000 C CNN
F 1 "APA102-2020" H 7750 2840 50  0000 C CNN
F 2 "APA102-alt:APA102-2020" H 7800 2150 50  0001 L TNN
F 3 "http://www.led-color.com/upload/201604/APA102-2020%20SMD%20LED.pdf" H 7850 2075 50  0001 L TNN
	1    7750 2450
	1    0    0    -1  
$EndComp
$Comp
L LED:APA102-2020 D24
U 1 1 5E1BE177
P 8350 2450
F 0 "D24" H 8350 2931 50  0000 C CNN
F 1 "APA102-2020" H 8350 2840 50  0000 C CNN
F 2 "APA102-alt:APA102-2020" H 8400 2150 50  0001 L TNN
F 3 "http://www.led-color.com/upload/201604/APA102-2020%20SMD%20LED.pdf" H 8450 2075 50  0001 L TNN
	1    8350 2450
	1    0    0    -1  
$EndComp
$Comp
L LED:APA102-2020 D25
U 1 1 5E1BE17D
P 8950 2450
F 0 "D25" H 8950 2931 50  0000 C CNN
F 1 "APA102-2020" H 8950 2840 50  0000 C CNN
F 2 "APA102-alt:APA102-2020" H 9000 2150 50  0001 L TNN
F 3 "http://www.led-color.com/upload/201604/APA102-2020%20SMD%20LED.pdf" H 9050 2075 50  0001 L TNN
	1    8950 2450
	1    0    0    -1  
$EndComp
$Comp
L LED:APA102-2020 D26
U 1 1 5E1BE183
P 9550 2450
F 0 "D26" H 9550 2931 50  0000 C CNN
F 1 "APA102-2020" H 9550 2840 50  0000 C CNN
F 2 "APA102-alt:APA102-2020" H 9600 2150 50  0001 L TNN
F 3 "http://www.led-color.com/upload/201604/APA102-2020%20SMD%20LED.pdf" H 9650 2075 50  0001 L TNN
	1    9550 2450
	1    0    0    -1  
$EndComp
$Comp
L LED:APA102-2020 D27
U 1 1 5E1BE189
P 10150 2450
F 0 "D27" H 10150 2931 50  0000 C CNN
F 1 "APA102-2020" H 10150 2840 50  0000 C CNN
F 2 "APA102-alt:APA102-2020" H 10200 2150 50  0001 L TNN
F 3 "http://www.led-color.com/upload/201604/APA102-2020%20SMD%20LED.pdf" H 10250 2075 50  0001 L TNN
	1    10150 2450
	1    0    0    -1  
$EndComp
$Comp
L LED:APA102-2020 D28
U 1 1 5E1BE18F
P 10750 2450
F 0 "D28" H 10750 2931 50  0000 C CNN
F 1 "APA102-2020" H 10750 2840 50  0000 C CNN
F 2 "APA102-alt:APA102-2020" H 10800 2150 50  0001 L TNN
F 3 "http://www.led-color.com/upload/201604/APA102-2020%20SMD%20LED.pdf" H 10850 2075 50  0001 L TNN
	1    10750 2450
	1    0    0    -1  
$EndComp
$Comp
L LED:APA102-2020 D29
U 1 1 5E1BE195
P 11350 2450
F 0 "D29" H 11350 2931 50  0000 C CNN
F 1 "APA102-2020" H 11350 2840 50  0000 C CNN
F 2 "APA102-alt:APA102-2020" H 11400 2150 50  0001 L TNN
F 3 "http://www.led-color.com/upload/201604/APA102-2020%20SMD%20LED.pdf" H 11450 2075 50  0001 L TNN
	1    11350 2450
	1    0    0    -1  
$EndComp
$Comp
L LED:APA102-2020 D30
U 1 1 5E1BE19B
P 11950 2450
F 0 "D30" H 11950 2931 50  0000 C CNN
F 1 "APA102-2020" H 11950 2840 50  0000 C CNN
F 2 "APA102-alt:APA102-2020" H 12000 2150 50  0001 L TNN
F 3 "http://www.led-color.com/upload/201604/APA102-2020%20SMD%20LED.pdf" H 12050 2075 50  0001 L TNN
	1    11950 2450
	1    0    0    -1  
$EndComp
$Comp
L LED:APA102-2020 D31
U 1 1 5E1C6002
P 3550 3500
F 0 "D31" H 3550 3981 50  0000 C CNN
F 1 "APA102-2020" H 3550 3890 50  0000 C CNN
F 2 "APA102-alt:APA102-reverse_small" H 3600 3200 50  0001 L TNN
F 3 "http://www.led-color.com/upload/201604/APA102-2020%20SMD%20LED.pdf" H 3650 3125 50  0001 L TNN
	1    3550 3500
	1    0    0    -1  
$EndComp
$Comp
L LED:APA102-2020 D32
U 1 1 5E1C6008
P 4150 3500
F 0 "D32" H 4150 3981 50  0000 C CNN
F 1 "APA102-2020" H 4150 3890 50  0000 C CNN
F 2 "APA102-alt:APA102-reverse_small" H 4200 3200 50  0001 L TNN
F 3 "http://www.led-color.com/upload/201604/APA102-2020%20SMD%20LED.pdf" H 4250 3125 50  0001 L TNN
	1    4150 3500
	1    0    0    -1  
$EndComp
Wire Wire Line
	11950 1700 11350 1700
Connection ~ 4150 1700
Wire Wire Line
	4150 1700 3550 1700
Connection ~ 4750 1700
Wire Wire Line
	4750 1700 4150 1700
Connection ~ 5350 1700
Wire Wire Line
	5350 1700 4750 1700
Connection ~ 5950 1700
Wire Wire Line
	5950 1700 5350 1700
Connection ~ 6550 1700
Wire Wire Line
	6550 1700 5950 1700
Connection ~ 7150 1700
Wire Wire Line
	7150 1700 6550 1700
Connection ~ 7750 1700
Wire Wire Line
	7750 1700 7150 1700
Connection ~ 8350 1700
Wire Wire Line
	8350 1700 7750 1700
Connection ~ 8950 1700
Wire Wire Line
	8950 1700 8350 1700
Connection ~ 9550 1700
Wire Wire Line
	9550 1700 8950 1700
Connection ~ 10150 1700
Wire Wire Line
	10150 1700 9550 1700
Connection ~ 10750 1700
Wire Wire Line
	10750 1700 10150 1700
Connection ~ 11350 1700
Wire Wire Line
	11350 1700 10750 1700
Wire Wire Line
	3550 1100 4150 1100
Connection ~ 4150 1100
Wire Wire Line
	4150 1100 4750 1100
Connection ~ 4750 1100
Wire Wire Line
	4750 1100 5350 1100
Connection ~ 5350 1100
Wire Wire Line
	5350 1100 5950 1100
Connection ~ 5950 1100
Wire Wire Line
	5950 1100 6550 1100
Connection ~ 6550 1100
Wire Wire Line
	6550 1100 7150 1100
Connection ~ 7150 1100
Wire Wire Line
	7150 1100 7750 1100
Connection ~ 7750 1100
Wire Wire Line
	7750 1100 8350 1100
Connection ~ 8350 1100
Wire Wire Line
	8350 1100 8950 1100
Connection ~ 8950 1100
Wire Wire Line
	8950 1100 9550 1100
Connection ~ 9550 1100
Wire Wire Line
	9550 1100 10150 1100
Connection ~ 10150 1100
Wire Wire Line
	10150 1100 10750 1100
Connection ~ 10750 1100
Wire Wire Line
	10750 1100 11350 1100
Connection ~ 11350 1100
Wire Wire Line
	11350 1100 11950 1100
Wire Wire Line
	11950 2150 11350 2150
Connection ~ 4150 2150
Wire Wire Line
	4150 2150 3550 2150
Connection ~ 4750 2150
Wire Wire Line
	4750 2150 4150 2150
Connection ~ 5350 2150
Wire Wire Line
	5350 2150 4750 2150
Connection ~ 5950 2150
Wire Wire Line
	5950 2150 5350 2150
Connection ~ 6550 2150
Wire Wire Line
	6550 2150 5950 2150
Connection ~ 7150 2150
Wire Wire Line
	7150 2150 6550 2150
Connection ~ 7750 2150
Wire Wire Line
	7750 2150 7150 2150
Connection ~ 8350 2150
Wire Wire Line
	8350 2150 7750 2150
Connection ~ 8950 2150
Wire Wire Line
	8950 2150 8350 2150
Connection ~ 9550 2150
Wire Wire Line
	9550 2150 8950 2150
Connection ~ 10150 2150
Wire Wire Line
	10150 2150 9550 2150
Connection ~ 10750 2150
Wire Wire Line
	10750 2150 10150 2150
Connection ~ 11350 2150
Wire Wire Line
	11350 2150 10750 2150
Wire Wire Line
	3550 2750 4150 2750
Connection ~ 4150 2750
Wire Wire Line
	4150 2750 4750 2750
Connection ~ 4750 2750
Wire Wire Line
	4750 2750 5350 2750
Connection ~ 5350 2750
Wire Wire Line
	5350 2750 5950 2750
Connection ~ 5950 2750
Wire Wire Line
	5950 2750 6550 2750
Connection ~ 6550 2750
Wire Wire Line
	6550 2750 7150 2750
Connection ~ 7150 2750
Wire Wire Line
	7150 2750 7750 2750
Connection ~ 7750 2750
Wire Wire Line
	7750 2750 8350 2750
Connection ~ 8350 2750
Wire Wire Line
	8350 2750 8950 2750
Connection ~ 8950 2750
Wire Wire Line
	8950 2750 9550 2750
Connection ~ 9550 2750
Wire Wire Line
	9550 2750 10150 2750
Connection ~ 10150 2750
Wire Wire Line
	10150 2750 10750 2750
Connection ~ 10750 2750
Wire Wire Line
	10750 2750 11350 2750
Connection ~ 11350 2750
Wire Wire Line
	11350 2750 11950 2750
Wire Wire Line
	3550 3200 4150 3200
Wire Wire Line
	4150 3800 3550 3800
Wire Wire Line
	12250 1400 12250 1800
Wire Wire Line
	12250 1300 12350 1300
Wire Wire Line
	12350 1300 12350 1900
Wire Wire Line
	3250 1900 3250 2350
Wire Wire Line
	3250 1900 12350 1900
Wire Wire Line
	3150 1800 3150 2450
Wire Wire Line
	3150 2450 3250 2450
Wire Wire Line
	3150 1800 12250 1800
Wire Wire Line
	12250 2450 12250 2850
Wire Wire Line
	12250 2350 12350 2350
Wire Wire Line
	12350 2350 12350 2950
Wire Wire Line
	3250 2950 3250 3400
Wire Wire Line
	3250 2950 12350 2950
Wire Wire Line
	3250 3500 3150 3500
Wire Wire Line
	3150 3500 3150 2850
Wire Wire Line
	3150 2850 12250 2850
Wire Wire Line
	11950 1100 12450 1100
Wire Wire Line
	12450 1100 12450 2150
Wire Wire Line
	12450 2150 11950 2150
Connection ~ 11950 1100
Connection ~ 11950 2150
Wire Wire Line
	4150 3200 4750 3200
Wire Wire Line
	12450 3200 12450 2150
Connection ~ 4150 3200
Connection ~ 12450 2150
Wire Wire Line
	3550 3800 3050 3800
Wire Wire Line
	3050 3800 3050 2750
Wire Wire Line
	3050 2750 3550 2750
Connection ~ 3550 3800
Connection ~ 3550 2750
Wire Wire Line
	3050 2750 3050 1700
Wire Wire Line
	3050 1700 3550 1700
Connection ~ 3050 2750
Connection ~ 3550 1700
$Comp
L power:GND #PWR0101
U 1 1 5E298B84
P 2950 1700
F 0 "#PWR0101" H 2950 1450 50  0001 C CNN
F 1 "GND" H 2955 1527 50  0000 C CNN
F 2 "" H 2950 1700 50  0001 C CNN
F 3 "" H 2950 1700 50  0001 C CNN
	1    2950 1700
	1    0    0    -1  
$EndComp
Wire Wire Line
	3200 1100 3550 1100
Connection ~ 3550 1100
Wire Wire Line
	2950 1700 3050 1700
Connection ~ 3050 1700
$Comp
L Switch:SW_SPST SW1
U 1 1 5E2A1EBC
P 2250 3350
F 0 "SW1" H 2250 3585 50  0000 C CNN
F 1 "SW_SPST" H 2250 3494 50  0000 C CNN
F 2 "Button_Switch_SMD:SW_SPST_CK_RS282G05A3" H 2250 3350 50  0001 C CNN
F 3 "~" H 2250 3350 50  0001 C CNN
	1    2250 3350
	1    0    0    -1  
$EndComp
$Comp
L Switch:SW_SPST SW2
U 1 1 5E2A22AE
P 2250 3750
F 0 "SW2" H 2250 3985 50  0000 C CNN
F 1 "SW_SPST" H 2250 3894 50  0000 C CNN
F 2 "Button_Switch_SMD:SW_SPST_CK_RS282G05A3" H 2250 3750 50  0001 C CNN
F 3 "~" H 2250 3750 50  0001 C CNN
	1    2250 3750
	1    0    0    -1  
$EndComp
$Comp
L power:GND #PWR0102
U 1 1 5E2A3249
P 2450 3750
F 0 "#PWR0102" H 2450 3500 50  0001 C CNN
F 1 "GND" H 2455 3577 50  0000 C CNN
F 2 "" H 2450 3750 50  0001 C CNN
F 3 "" H 2450 3750 50  0001 C CNN
	1    2450 3750
	1    0    0    -1  
$EndComp
Wire Wire Line
	2450 3350 2450 3750
Connection ~ 2450 3750
Text GLabel 3250 1300 0    50   Input ~ 0
LED_Data
Text GLabel 3250 1400 0    50   Input ~ 0
LED_Clock
Text GLabel 2050 3350 0    50   Input ~ 0
SW+
Text GLabel 2050 3750 0    50   Input ~ 0
SW-
$Comp
L power:GND #PWR0103
U 1 1 5E2B82B5
P 1400 2450
F 0 "#PWR0103" H 1400 2200 50  0001 C CNN
F 1 "GND" H 1405 2277 50  0000 C CNN
F 2 "" H 1400 2450 50  0001 C CNN
F 3 "" H 1400 2450 50  0001 C CNN
	1    1400 2450
	1    0    0    -1  
$EndComp
$Comp
L Connector:USB_C_Receptacle_USB2.0 J1
U 1 1 5E2B96D2
P -900 3000
F 0 "J1" H -793 3867 50  0000 C CNN
F 1 "USB_C_Receptacle_USB2.0" H -793 3776 50  0000 C CNN
F 2 "inline-usb:USB_C_onboard" H -750 3000 50  0001 C CNN
F 3 "https://www.usb.org/sites/default/files/documents/usb_type-c.zip" H -750 3000 50  0001 C CNN
	1    -900 3000
	1    0    0    -1  
$EndComp
$Comp
L power:+5V #PWR0104
U 1 1 5E2BA93B
P -300 2400
F 0 "#PWR0104" H -300 2250 50  0001 C CNN
F 1 "+5V" H -285 2573 50  0000 C CNN
F 2 "" H -300 2400 50  0001 C CNN
F 3 "" H -300 2400 50  0001 C CNN
	1    -300 2400
	1    0    0    -1  
$EndComp
$Comp
L power:GND #PWR0105
U 1 1 5E2BD16B
P -900 3900
F 0 "#PWR0105" H -900 3650 50  0001 C CNN
F 1 "GND" H -895 3727 50  0000 C CNN
F 2 "" H -900 3900 50  0001 C CNN
F 3 "" H -900 3900 50  0001 C CNN
	1    -900 3900
	1    0    0    -1  
$EndComp
Text GLabel 2000 1250 2    50   Input ~ 0
LED_Clock
Text GLabel 2000 1050 2    50   Input ~ 0
LED_Data
Text GLabel 2000 1950 2    50   Input ~ 0
SW+
Text GLabel 2000 1650 2    50   Input ~ 0
SW-
$Comp
L Battery_Management:MCP73831-2-OT U2
U 1 1 5E2E6E41
P 5100 4750
F 0 "U2" H 5100 5231 50  0000 C CNN
F 1 "MCP73831-2-OT" H 5100 5140 50  0000 C CNN
F 2 "Package_TO_SOT_SMD:SOT-23-5" H 5150 4500 50  0001 L CIN
F 3 "http://ww1.microchip.com/downloads/en/DeviceDoc/20001984g.pdf" H 4950 4700 50  0001 C CNN
	1    5100 4750
	1    0    0    -1  
$EndComp
$Comp
L power:GND #PWR0106
U 1 1 5E2EABA6
P 5100 5050
F 0 "#PWR0106" H 5100 4800 50  0001 C CNN
F 1 "GND" H 5105 4877 50  0000 C CNN
F 2 "" H 5100 5050 50  0001 C CNN
F 3 "" H 5100 5050 50  0001 C CNN
	1    5100 5050
	1    0    0    -1  
$EndComp
$Comp
L power:+5V #PWR0107
U 1 1 5E2FAFD6
P 5700 4450
F 0 "#PWR0107" H 5700 4300 50  0001 C CNN
F 1 "+5V" H 5715 4623 50  0000 C CNN
F 2 "" H 5700 4450 50  0001 C CNN
F 3 "" H 5700 4450 50  0001 C CNN
	1    5700 4450
	1    0    0    -1  
$EndComp
$Comp
L Device:R R1
U 1 1 5E2FFE5E
P 5700 4700
F 0 "R1" H 5630 4654 50  0000 R CNN
F 1 "10k" H 5630 4745 50  0000 R CNN
F 2 "Resistor_SMD:R_0603_1608Metric" V 5630 4700 50  0001 C CNN
F 3 "~" H 5700 4700 50  0001 C CNN
	1    5700 4700
	-1   0    0    1   
$EndComp
$Comp
L Device:R R2
U 1 1 5E310DE5
P 4700 5000
F 0 "R2" H 4630 4954 50  0000 R CNN
F 1 "2k" H 4630 5045 50  0000 R CNN
F 2 "Resistor_SMD:R_0603_1608Metric" V 4630 5000 50  0001 C CNN
F 3 "~" H 4700 5000 50  0001 C CNN
	1    4700 5000
	-1   0    0    1   
$EndComp
Wire Wire Line
	4700 5150 4950 5150
Wire Wire Line
	4950 5150 4950 5050
Wire Wire Line
	4950 5050 5100 5050
Connection ~ 5100 5050
$Comp
L power:+BATT #PWR0109
U 1 1 5E31A20C
P 1400 650
F 0 "#PWR0109" H 1400 500 50  0001 C CNN
F 1 "+BATT" H 1415 823 50  0000 C CNN
F 2 "" H 1400 650 50  0001 C CNN
F 3 "" H 1400 650 50  0001 C CNN
	1    1400 650 
	1    0    0    -1  
$EndComp
$Comp
L power:+BATT #PWR0110
U 1 1 5E32021A
P 3200 1100
F 0 "#PWR0110" H 3200 950 50  0001 C CNN
F 1 "+BATT" H 3215 1273 50  0000 C CNN
F 2 "" H 3200 1100 50  0001 C CNN
F 3 "" H 3200 1100 50  0001 C CNN
	1    3200 1100
	1    0    0    -1  
$EndComp
$Comp
L Device:Battery_Cell BT1
U 1 1 5E33C291
P 3650 4700
F 0 "BT1" H 3768 4796 50  0000 L CNN
F 1 "Battery_Cell" H 3768 4705 50  0000 L CNN
F 2 "Connector_JST:JST_PH_S2B-PH-SM4-TB_1x02-1MP_P2.00mm_Horizontal" V 3650 4760 50  0001 C CNN
F 3 "~" V 3650 4760 50  0001 C CNN
	1    3650 4700
	1    0    0    -1  
$EndComp
$Comp
L power:+BATT #PWR0111
U 1 1 5E33FBF1
P 4450 4400
F 0 "#PWR0111" H 4450 4250 50  0001 C CNN
F 1 "+BATT" H 4465 4573 50  0000 C CNN
F 2 "" H 4450 4400 50  0001 C CNN
F 3 "" H 4450 4400 50  0001 C CNN
	1    4450 4400
	1    0    0    -1  
$EndComp
$Comp
L power:GND #PWR0112
U 1 1 5E34010C
P 3300 5050
F 0 "#PWR0112" H 3300 4800 50  0001 C CNN
F 1 "GND" H 3305 4877 50  0000 C CNN
F 2 "" H 3300 5050 50  0001 C CNN
F 3 "" H 3300 5050 50  0001 C CNN
	1    3300 5050
	1    0    0    -1  
$EndComp
$Comp
L power:+5V #PWR0113
U 1 1 5E344BE2
P 2950 4500
F 0 "#PWR0113" H 2950 4350 50  0001 C CNN
F 1 "+5V" H 2965 4673 50  0000 C CNN
F 2 "" H 2950 4500 50  0001 C CNN
F 3 "" H 2950 4500 50  0001 C CNN
	1    2950 4500
	1    0    0    -1  
$EndComp
$Comp
L Device:C C1
U 1 1 5E34A4F5
P 2950 4650
F 0 "C1" H 3065 4696 50  0000 L CNN
F 1 "4.7u" H 3065 4605 50  0000 L CNN
F 2 "Capacitor_SMD:C_0603_1608Metric" H 2988 4500 50  0001 C CNN
F 3 "~" H 2950 4650 50  0001 C CNN
	1    2950 4650
	1    0    0    -1  
$EndComp
Wire Wire Line
	2950 4800 3300 4800
Connection ~ 3300 4800
Wire Wire Line
	3300 4800 3300 5050
$Comp
L Device:C C2
U 1 1 5E35F15E
P 3300 4650
F 0 "C2" H 3415 4696 50  0000 L CNN
F 1 "4.7u" H 3415 4605 50  0000 L CNN
F 2 "Capacitor_SMD:C_0603_1608Metric" H 3338 4500 50  0001 C CNN
F 3 "~" H 3300 4650 50  0001 C CNN
	1    3300 4650
	1    0    0    -1  
$EndComp
Wire Wire Line
	3300 4800 3650 4800
Wire Wire Line
	5500 4850 5700 4850
Connection ~ 5700 4450
Wire Wire Line
	5700 4450 5100 4450
Wire Wire Line
	5700 4450 5700 4550
$Comp
L MCU_Microchip_ATtiny:ATtiny841-SSU U1
U 1 1 5E3B8830
P 1400 1550
F 0 "U1" H 871 1596 50  0000 R CNN
F 1 "ATtiny841-SSU" H 871 1505 50  0000 R CNN
F 2 "Package_SO:SOIC-14_3.9x8.7mm_P1.27mm" H 1400 1550 50  0001 C CIN
F 3 "http://ww1.microchip.com/downloads/en/DeviceDoc/Atmel-8495-8-bit-AVR-Microcontrollers-ATtiny441-ATtiny841_Datasheet.pdf" H 1400 1550 50  0001 C CNN
	1    1400 1550
	1    0    0    -1  
$EndComp
$Comp
L Switch:SW_SPST SW3
U 1 1 5E3C0DFA
P 1450 3350
F 0 "SW3" H 1450 3585 50  0000 C CNN
F 1 "SW_SPST" H 1450 3494 50  0000 C CNN
F 2 "Button_Switch_SMD:SW_SPST_CK_RS282G05A3" H 1450 3350 50  0001 C CNN
F 3 "~" H 1450 3350 50  0001 C CNN
	1    1450 3350
	1    0    0    -1  
$EndComp
Text GLabel 2000 1550 2    50   Input ~ 0
SW_reset
Text GLabel 2000 1450 2    50   Input ~ 0
SW_power
Text GLabel 2000 1350 2    50   Input ~ 0
SW_other
$Comp
L Connector:Conn_01x06_Male J2
U 1 1 5E3CB0CD
P -400 800
F 0 "J2" H -292 1181 50  0000 C CNN
F 1 "Conn_01x06_Male" H -292 1090 50  0000 C CNN
F 2 "JaxComponentLib:6pad" H -400 800 50  0001 C CNN
F 3 "~" H -400 800 50  0001 C CNN
	1    -400 800 
	1    0    0    -1  
$EndComp
$Comp
L power:+BATT #PWR0114
U 1 1 5E3CDBD2
P -200 600
F 0 "#PWR0114" H -200 450 50  0001 C CNN
F 1 "+BATT" H -185 773 50  0000 C CNN
F 2 "" H -200 600 50  0001 C CNN
F 3 "" H -200 600 50  0001 C CNN
	1    -200 600 
	1    0    0    -1  
$EndComp
$Comp
L power:GND #PWR0115
U 1 1 5E3CE0BA
P -200 1100
F 0 "#PWR0115" H -200 850 50  0001 C CNN
F 1 "GND" H -195 927 50  0000 C CNN
F 2 "" H -200 1100 50  0001 C CNN
F 3 "" H -200 1100 50  0001 C CNN
	1    -200 1100
	1    0    0    -1  
$EndComp
Text GLabel -200 900  2    50   Input ~ 0
SW_reset
Text GLabel -200 800  2    50   Input ~ 0
SW_power
Text GLabel -200 700  2    50   Input ~ 0
SW_other
Text GLabel 2000 2150 2    50   Input ~ 0
reset
Text GLabel -200 1000 2    50   Input ~ 0
reset
$Comp
L Switch:SW_SPST SW4
U 1 1 5E1CCCEA
P 1450 4050
F 0 "SW4" H 1450 4285 50  0000 C CNN
F 1 "SW_SPST" H 1450 4194 50  0000 C CNN
F 2 "Button_Switch_SMD:SW_SPST_CK_RS282G05A3" H 1450 4050 50  0001 C CNN
F 3 "~" H 1450 4050 50  0001 C CNN
	1    1450 4050
	1    0    0    -1  
$EndComp
$Comp
L Switch:SW_SPST SW5
U 1 1 5E1CD1A6
P 1450 3000
F 0 "SW5" H 1450 3235 50  0000 C CNN
F 1 "SW_SPST" H 1450 3144 50  0000 C CNN
F 2 "Button_Switch_SMD:SW_SPST_CK_RS282G05A3" H 1450 3000 50  0001 C CNN
F 3 "~" H 1450 3000 50  0001 C CNN
	1    1450 3000
	1    0    0    -1  
$EndComp
$Comp
L power:GND #PWR0116
U 1 1 5E1CD64A
P 1650 4050
F 0 "#PWR0116" H 1650 3800 50  0001 C CNN
F 1 "GND" H 1655 3877 50  0000 C CNN
F 2 "" H 1650 4050 50  0001 C CNN
F 3 "" H 1650 4050 50  0001 C CNN
	1    1650 4050
	1    0    0    -1  
$EndComp
Wire Wire Line
	1650 3000 1650 3350
Connection ~ 1650 3350
Wire Wire Line
	1650 3350 1650 3700
Text GLabel 1250 3700 0    50   Input ~ 0
SW_reset
Text GLabel 1250 3350 0    50   Input ~ 0
SW_power
Text GLabel 1250 3000 0    50   Input ~ 0
SW_other
$Comp
L power:+BATT #PWR0117
U 1 1 5E202C91
P 2350 2050
F 0 "#PWR0117" H 2350 1900 50  0001 C CNN
F 1 "+BATT" H 2365 2223 50  0000 C CNN
F 2 "" H 2350 2050 50  0001 C CNN
F 3 "" H 2350 2050 50  0001 C CNN
	1    2350 2050
	1    0    0    -1  
$EndComp
Wire Wire Line
	2000 2050 2350 2050
Text GLabel 2000 1150 2    50   Input ~ 0
SW_another
Text GLabel 1250 4050 0    50   Input ~ 0
SW_another
$Comp
L Switch:SW_SPST SW6
U 1 1 5E2356F9
P 1450 3700
F 0 "SW6" H 1450 3935 50  0000 C CNN
F 1 "SW_SPST" H 1450 3844 50  0000 C CNN
F 2 "Button_Switch_SMD:SW_SPST_CK_RS282G05A3" H 1450 3700 50  0001 C CNN
F 3 "~" H 1450 3700 50  0001 C CNN
	1    1450 3700
	1    0    0    -1  
$EndComp
Wire Wire Line
	1650 3700 1650 4050
Connection ~ 1650 3700
Connection ~ 1650 4050
$Comp
L LED:APA102-2020 D33
U 1 1 5E26FB55
P 4750 3500
F 0 "D33" H 4750 3981 50  0000 C CNN
F 1 "APA102-2020" H 4750 3890 50  0000 C CNN
F 2 "APA102-alt:APA102-reverse_small" H 4800 3200 50  0001 L TNN
F 3 "http://www.led-color.com/upload/201604/APA102-2020%20SMD%20LED.pdf" H 4850 3125 50  0001 L TNN
	1    4750 3500
	1    0    0    -1  
$EndComp
Connection ~ 4750 3200
Wire Wire Line
	4750 3200 5350 3200
Wire Wire Line
	4150 3800 4750 3800
Connection ~ 4150 3800
Text GLabel 2000 1850 2    50   Input ~ 0
SW0
$Comp
L Switch:SW_SPST SW7
U 1 1 5E299A75
P 2250 3000
F 0 "SW7" H 2250 3235 50  0000 C CNN
F 1 "SW_SPST" H 2250 3144 50  0000 C CNN
F 2 "Button_Switch_SMD:SW_SPST_CK_RS282G05A3" H 2250 3000 50  0001 C CNN
F 3 "~" H 2250 3000 50  0001 C CNN
	1    2250 3000
	1    0    0    -1  
$EndComp
Text GLabel 2050 3000 0    50   Input ~ 0
SW0
Wire Wire Line
	2450 3000 2450 3350
Connection ~ 2450 3350
$Comp
L Switch:SW_SPDT SW8
U 1 1 5E350BB3
P 4250 4400
F 0 "SW8" H 4250 4075 50  0000 C CNN
F 1 "SW_SPDT" H 4250 4166 50  0000 C CNN
F 2 "JaxComponentLib:SW_SPDT_PCM12_noholes" H 4250 4400 50  0001 C CNN
F 3 "~" H 4250 4400 50  0001 C CNN
	1    4250 4400
	-1   0    0    1   
$EndComp
Wire Wire Line
	4050 4500 3650 4500
Text Label 3650 4500 0    50   ~ 0
battery
$Comp
L LED:APA102-2020 D34
U 1 1 5E36AF40
P 5350 3500
F 0 "D34" H 5350 3981 50  0000 C CNN
F 1 "APA102-2020" H 5350 3890 50  0000 C CNN
F 2 "APA102-alt:APA102-reverse_small" H 5400 3200 50  0001 L TNN
F 3 "http://www.led-color.com/upload/201604/APA102-2020%20SMD%20LED.pdf" H 5450 3125 50  0001 L TNN
	1    5350 3500
	1    0    0    -1  
$EndComp
$Comp
L LED:APA102-2020 D35
U 1 1 5E36AF4A
P 5950 3500
F 0 "D35" H 5950 3981 50  0000 C CNN
F 1 "APA102-2020" H 5950 3890 50  0000 C CNN
F 2 "APA102-alt:APA102-reverse_small" H 6000 3200 50  0001 L TNN
F 3 "http://www.led-color.com/upload/201604/APA102-2020%20SMD%20LED.pdf" H 6050 3125 50  0001 L TNN
	1    5950 3500
	1    0    0    -1  
$EndComp
Connection ~ 5350 3200
Wire Wire Line
	5350 3200 5950 3200
Connection ~ 5950 3200
Connection ~ 7750 3200
Wire Wire Line
	7150 3200 7750 3200
Connection ~ 7150 3200
Connection ~ 6550 3200
Wire Wire Line
	6550 3200 7150 3200
Wire Wire Line
	5950 3200 6550 3200
$Comp
L LED:APA102-2020 D38
U 1 1 5E385346
P 7750 3500
F 0 "D38" H 7750 3981 50  0000 C CNN
F 1 "APA102-2020" H 7750 3890 50  0000 C CNN
F 2 "APA102-alt:APA102-reverse_small" H 7800 3200 50  0001 L TNN
F 3 "http://www.led-color.com/upload/201604/APA102-2020%20SMD%20LED.pdf" H 7850 3125 50  0001 L TNN
	1    7750 3500
	1    0    0    -1  
$EndComp
$Comp
L LED:APA102-2020 D37
U 1 1 5E38533C
P 7150 3500
F 0 "D37" H 7150 3981 50  0000 C CNN
F 1 "APA102-2020" H 7150 3890 50  0000 C CNN
F 2 "APA102-alt:APA102-reverse_small" H 7200 3200 50  0001 L TNN
F 3 "http://www.led-color.com/upload/201604/APA102-2020%20SMD%20LED.pdf" H 7250 3125 50  0001 L TNN
	1    7150 3500
	1    0    0    -1  
$EndComp
$Comp
L LED:APA102-2020 D36
U 1 1 5E36AF54
P 6550 3500
F 0 "D36" H 6550 3981 50  0000 C CNN
F 1 "APA102-2020" H 6550 3890 50  0000 C CNN
F 2 "APA102-alt:APA102-reverse_small" H 6600 3200 50  0001 L TNN
F 3 "http://www.led-color.com/upload/201604/APA102-2020%20SMD%20LED.pdf" H 6650 3125 50  0001 L TNN
	1    6550 3500
	1    0    0    -1  
$EndComp
Connection ~ 8350 3200
Wire Wire Line
	7750 3200 8350 3200
Wire Wire Line
	8350 3200 8950 3200
$Comp
L LED:APA102-2020 D39
U 1 1 5E385350
P 8350 3500
F 0 "D39" H 8350 3981 50  0000 C CNN
F 1 "APA102-2020" H 8350 3890 50  0000 C CNN
F 2 "APA102-alt:APA102-reverse_small" H 8400 3200 50  0001 L TNN
F 3 "http://www.led-color.com/upload/201604/APA102-2020%20SMD%20LED.pdf" H 8450 3125 50  0001 L TNN
	1    8350 3500
	1    0    0    -1  
$EndComp
$Comp
L LED:APA102-2020 D40
U 1 1 5E3B715B
P 8950 3500
F 0 "D40" H 8950 3981 50  0000 C CNN
F 1 "APA102-2020" H 8950 3890 50  0000 C CNN
F 2 "APA102-alt:APA102-reverse_small" H 9000 3200 50  0001 L TNN
F 3 "http://www.led-color.com/upload/201604/APA102-2020%20SMD%20LED.pdf" H 9050 3125 50  0001 L TNN
	1    8950 3500
	1    0    0    -1  
$EndComp
Connection ~ 8950 3200
Wire Wire Line
	8950 3200 12450 3200
Wire Wire Line
	4750 3800 5350 3800
Connection ~ 4750 3800
Connection ~ 5350 3800
Wire Wire Line
	5350 3800 5950 3800
Connection ~ 5950 3800
Wire Wire Line
	5950 3800 6550 3800
Connection ~ 6550 3800
Wire Wire Line
	6550 3800 7150 3800
Connection ~ 7150 3800
Wire Wire Line
	7150 3800 7750 3800
Connection ~ 7750 3800
Wire Wire Line
	7750 3800 8350 3800
Connection ~ 8350 3800
Wire Wire Line
	8350 3800 8950 3800
$Comp
L power:+BATT #PWR0118
U 1 1 5E2D6A03
P 3300 4500
F 0 "#PWR0118" H 3300 4350 50  0001 C CNN
F 1 "+BATT" H 3315 4673 50  0000 C CNN
F 2 "" H 3300 4500 50  0001 C CNN
F 3 "" H 3300 4500 50  0001 C CNN
	1    3300 4500
	1    0    0    -1  
$EndComp
$Comp
L Device:R R9
U 1 1 5E441BAD
P 2200 5100
F 0 "R9" H 2130 5054 50  0000 R CNN
F 1 "100k" H 2130 5145 50  0000 R CNN
F 2 "Resistor_SMD:R_0603_1608Metric" V 2130 5100 50  0001 C CNN
F 3 "~" H 2200 5100 50  0001 C CNN
	1    2200 5100
	1    0    0    -1  
$EndComp
$Comp
L Device:R R8
U 1 1 5E447511
P 1950 5100
F 0 "R8" H 1880 5054 50  0000 R CNN
F 1 "100k" H 1880 5145 50  0000 R CNN
F 2 "Resistor_SMD:R_0603_1608Metric" V 1880 5100 50  0001 C CNN
F 3 "~" H 1950 5100 50  0001 C CNN
	1    1950 5100
	1    0    0    -1  
$EndComp
$Comp
L Device:R R7
U 1 1 5E447812
P 1700 5100
F 0 "R7" H 1630 5054 50  0000 R CNN
F 1 "100k" H 1630 5145 50  0000 R CNN
F 2 "Resistor_SMD:R_0603_1608Metric" V 1630 5100 50  0001 C CNN
F 3 "~" H 1700 5100 50  0001 C CNN
	1    1700 5100
	1    0    0    -1  
$EndComp
Text GLabel 2200 4950 1    50   Input ~ 0
SW_another
Text GLabel 1950 4950 1    50   Input ~ 0
SW_reset
Text GLabel 1700 4950 1    50   Input ~ 0
SW_power
Text GLabel 1450 4950 1    50   Input ~ 0
SW_other
Text GLabel 950  4950 1    50   Input ~ 0
SW+
Text GLabel 1200 4950 1    50   Input ~ 0
SW-
Text GLabel 700  4950 1    50   Input ~ 0
SW0
$Comp
L Device:R R6
U 1 1 5E45F45B
P 1450 5100
F 0 "R6" H 1380 5054 50  0000 R CNN
F 1 "100k" H 1380 5145 50  0000 R CNN
F 2 "Resistor_SMD:R_0603_1608Metric" V 1380 5100 50  0001 C CNN
F 3 "~" H 1450 5100 50  0001 C CNN
	1    1450 5100
	1    0    0    -1  
$EndComp
$Comp
L Device:R R5
U 1 1 5E45F749
P 1200 5100
F 0 "R5" H 1130 5054 50  0000 R CNN
F 1 "100k" H 1130 5145 50  0000 R CNN
F 2 "Resistor_SMD:R_0603_1608Metric" V 1130 5100 50  0001 C CNN
F 3 "~" H 1200 5100 50  0001 C CNN
	1    1200 5100
	1    0    0    -1  
$EndComp
$Comp
L Device:R R4
U 1 1 5E45F991
P 950 5100
F 0 "R4" H 880 5054 50  0000 R CNN
F 1 "100k" H 880 5145 50  0000 R CNN
F 2 "Resistor_SMD:R_0603_1608Metric" V 880 5100 50  0001 C CNN
F 3 "~" H 950 5100 50  0001 C CNN
	1    950  5100
	1    0    0    -1  
$EndComp
$Comp
L Device:R R3
U 1 1 5E45FC43
P 700 5100
F 0 "R3" H 630 5054 50  0000 R CNN
F 1 "100k" H 630 5145 50  0000 R CNN
F 2 "Resistor_SMD:R_0603_1608Metric" V 630 5100 50  0001 C CNN
F 3 "~" H 700 5100 50  0001 C CNN
	1    700  5100
	1    0    0    -1  
$EndComp
$Comp
L power:+BATT #PWR0119
U 1 1 5E4694CB
P 2400 5250
F 0 "#PWR0119" H 2400 5100 50  0001 C CNN
F 1 "+BATT" H 2415 5423 50  0000 C CNN
F 2 "" H 2400 5250 50  0001 C CNN
F 3 "" H 2400 5250 50  0001 C CNN
	1    2400 5250
	1    0    0    -1  
$EndComp
Wire Wire Line
	700  5250 950  5250
Connection ~ 950  5250
Wire Wire Line
	950  5250 1200 5250
Connection ~ 1200 5250
Wire Wire Line
	1200 5250 1450 5250
Connection ~ 1450 5250
Wire Wire Line
	1450 5250 1700 5250
Connection ~ 1700 5250
Wire Wire Line
	1700 5250 1950 5250
Connection ~ 1950 5250
Wire Wire Line
	1950 5250 2200 5250
Connection ~ 2200 5250
Wire Wire Line
	2200 5250 2400 5250
$Comp
L power:GND #PWR0120
U 1 1 5E453837
P -1200 3900
F 0 "#PWR0120" H -1200 3650 50  0001 C CNN
F 1 "GND" H -1195 3727 50  0000 C CNN
F 2 "" H -1200 3900 50  0001 C CNN
F 3 "" H -1200 3900 50  0001 C CNN
	1    -1200 3900
	1    0    0    -1  
$EndComp
$Comp
L power:+5V #PWR0108
U 1 1 5E447267
P 4050 4300
F 0 "#PWR0108" H 4050 4150 50  0001 C CNN
F 1 "+5V" H 4065 4473 50  0000 C CNN
F 2 "" H 4050 4300 50  0001 C CNN
F 3 "" H 4050 4300 50  0001 C CNN
	1    4050 4300
	1    0    0    -1  
$EndComp
Text Label 5500 4650 0    50   ~ 0
battery
$Comp
L Device:R R11
U 1 1 5E4C701A
P 0 2850
F 0 "R11" H -70 2804 50  0000 R CNN
F 1 "5.1k" H -70 2895 50  0000 R CNN
F 2 "Resistor_SMD:R_0603_1608Metric" V -70 2850 50  0001 C CNN
F 3 "~" H 0   2850 50  0001 C CNN
	1    0    2850
	1    0    0    -1  
$EndComp
$Comp
L power:GND #PWR0121
U 1 1 5E4DB66C
P 150 3000
F 0 "#PWR0121" H 150 2750 50  0001 C CNN
F 1 "GND" H 155 2827 50  0000 C CNN
F 2 "" H 150 3000 50  0001 C CNN
F 3 "" H 150 3000 50  0001 C CNN
	1    150  3000
	1    0    0    -1  
$EndComp
$Comp
L Device:R R10
U 1 1 5E4DC612
P 150 2750
F 0 "R10" H 80  2704 50  0000 R CNN
F 1 "5.1k" H 80  2795 50  0000 R CNN
F 2 "Resistor_SMD:R_0603_1608Metric" V 80  2750 50  0001 C CNN
F 3 "~" H 150 2750 50  0001 C CNN
	1    150  2750
	-1   0    0    1   
$EndComp
Wire Wire Line
	0    3000 150  3000
Wire Wire Line
	150  3000 150  2900
Connection ~ 150  3000
Wire Wire Line
	-300 2700 0    2700
Wire Wire Line
	-300 2600 150  2600
$EndSCHEMATC
